﻿/////////////////////////////////////////////////////////////
// Resources file, created with HLBox17b, free software!!! //
//  © Chapo 2005-2010 - Infos @ http://www.17buddies.net   //
//            More than 50000 maps to download!            //
/////////////////////////////////////////////////////////////
// doh_deagle.res
// Created: GMT 2012-03-13 16:25:17

