﻿/////////////////////////////////////////////////////////////
// Resources file, created with HLBox17b, free software!!! //
//  © Chapo 2005-2010 - Infos @ http://www.17buddies.net   //
//            More than 50000 maps to download!            //
/////////////////////////////////////////////////////////////
// de_mirage.res
// Created: GMT 2010-12-16 17:30:18

maps/de_mirage.txt
overviews/de_mirage.txt
overviews/de_mirage.bmp
